t, x, y, z, roll, pitch, yaw, xdot, ydot, zdot, rolldot, pitchdot, yawdot
0,0,0,0,0,-0.28964,0,11.494,0,-2.3819,0,0,0
0.01,0.11695,0,0.01,0,-0.28964,0,11.494,0,-2.3819,0,-4.7683e-12,0
0.02,0.2339,0,0.02,0,-0.28964,0,11.494,0,-2.3819,0,-7.3336e-12,0
0.03,0.35086,0,0.03,0,-0.28964,0,11.494,0,-2.3819,0,-8.2042e-12,0
0.04,0.46781,0,0.04,0,-0.28964,0,11.494,0,-2.3819,0,-7.7435e-12,0
0.05,0.58476,0,0.05,0,-0.28964,0,11.494,0,-2.3819,0,-6.2758e-12,0
0.06,0.70171,0,0.06,0,-0.28964,0,11.494,0,-2.3819,0,-4.1016e-12,0
0.07,0.81867,0,0.07,0,-0.28964,0,11.494,0,-2.3819,0,-1.4867e-12,0
0.08,0.93562,0,0.08,0,-0.28964,0,11.494,0,-2.3819,0,1.3746e-12,0
0.09,1.0526,0,0.09,0,-0.28964,0,11.494,0,-2.3819,0,4.4022e-12,0
0.1,1.1695,0,0.1,0,-0.28964,0,11.494,0,-2.3819,0,7.5211e-12,0
0.11,1.2865,0,0.11,0,-0.28964,0,11.494,0,-2.3819,0,1.0646e-11,0
0.12,1.4034,0,0.12,0,-0.28964,0,11.494,0,-2.3819,0,1.3695e-11,0
0.13,1.5204,0,0.13,0,-0.28964,0,11.494,0,-2.3819,0,1.66e-11,0
0.14,1.6373,0,0.14,0,-0.28964,0,11.494,0,-2.3819,0,1.932e-11,0
0.15,1.7543,0,0.15,0,-0.28964,0,11.494,0,-2.3819,0,2.1866e-11,0
0.16,1.8712,0,0.16,0,-0.28964,0,11.494,0,-2.3819,0,2.4243e-11,0
0.17,1.9882,0,0.17,0,-0.28964,0,11.494,0,-2.3819,0,2.6442e-11,0
0.18,2.1051,0,0.18,0,-0.28964,0,11.494,0,-2.3819,0,2.8455e-11,0
0.19,2.2221,0,0.19,0,-0.28964,0,11.494,0,-2.3819,0,3.0276e-11,0
0.2,2.339,0,0.2,0,-0.28964,0,11.494,0,-2.3819,0,3.1909e-11,0
0.21,2.456,0,0.21,0,-0.28964,0,11.494,0,-2.3819,0,3.3371e-11,0
0.22,2.5729,0,0.22,0,-0.28964,0,11.494,0,-2.3819,0,3.468e-11,0
0.23,2.6899,0,0.23,0,-0.28964,0,11.494,0,-2.3819,0,3.5843e-11,0
0.24,2.8069,0,0.24,0,-0.28964,0,11.494,0,-2.3819,0,3.6869e-11,0
0.25,2.9238,0,0.25,0,-0.28964,0,11.494,0,-2.3819,0,3.7765e-11,0
0.26,3.0408,0,0.26,0,-0.28964,0,11.494,0,-2.3819,0,3.8541e-11,0
0.27,3.1577,0,0.27,0,-0.28964,0,11.494,0,-2.3819,0,3.921e-11,0
0.28,3.2747,0,0.28,0,-0.28964,0,11.494,0,-2.3819,0,3.9784e-11,0
0.29,3.3916,0,0.29,0,-0.28964,0,11.494,0,-2.3819,0,4.0271e-11,0
0.3,3.5086,0,0.3,0,-0.28964,0,11.494,0,-2.3819,0,4.0681e-11,0
0.31,3.6255,0,0.31,0,-0.28964,0,11.494,0,-2.3819,0,4.1019e-11,0
0.32,3.7425,0,0.32,0,-0.28964,0,11.494,0,-2.3819,0,4.1292e-11,0
0.33,3.8594,0,0.33,0,-0.28964,0,11.494,0,-2.3819,0,4.151e-11,0
0.34,3.9764,0,0.34,0,-0.28964,0,11.494,0,-2.3819,0,4.1677e-11,0
0.35,4.0933,0,0.35,0,-0.28964,0,11.494,0,-2.3819,0,4.1799e-11,0
0.36,4.2103,0,0.36,0,-0.28964,0,11.494,0,-2.3819,0,4.1883e-11,0
0.37,4.3272,0,0.37,0,-0.28964,0,11.494,0,-2.3819,0,4.1931e-11,0
0.38,4.4442,0,0.38,0,-0.28964,0,11.494,0,-2.3819,0,4.1948e-11,0
0.39,4.5611,0,0.39,0,-0.28964,0,11.494,0,-2.3819,0,4.1937e-11,0
0.4,4.6781,0,0.4,0,-0.28964,0,11.494,0,-2.3819,0,4.1903e-11,0
0.41,4.795,0,0.41,0,-0.28964,0,11.494,0,-2.3819,0,4.1847e-11,0
0.42,4.912,0,0.42,0,-0.28964,0,11.494,0,-2.3819,0,4.1773e-11,0
0.43,5.0289,0,0.43,0,-0.28964,0,11.494,0,-2.3819,0,4.1683e-11,0
0.44,5.1459,0,0.44,0,-0.28964,0,11.494,0,-2.3819,0,4.1579e-11,0
0.45,5.2628,0,0.45,0,-0.28964,0,11.494,0,-2.3819,0,4.1462e-11,0
0.46,5.3798,0,0.46,0,-0.28964,0,11.494,0,-2.3819,0,4.1334e-11,0
0.47,5.4968,0,0.47,0,-0.28964,0,11.494,0,-2.3819,0,4.1196e-11,0
0.48,5.6137,0,0.48,0,-0.28964,0,11.494,0,-2.3819,0,4.1051e-11,0
0.49,5.7307,0,0.49,0,-0.28964,0,11.494,0,-2.3819,0,4.0897e-11,0
0.5,5.8476,0,0.5,0,-0.28964,0,11.494,0,-2.3819,0,4.0738e-11,0
0.51,5.9646,0,0.51,0,-0.28964,0,11.494,0,-2.3819,0,4.0573e-11,0
0.52,6.0815,0,0.52,0,-0.28964,0,11.494,0,-2.3819,0,4.0403e-11,0
0.53,6.1985,0,0.53,0,-0.28964,0,11.494,0,-2.3819,0,4.0228e-11,0
0.54,6.3154,0,0.54,0,-0.28964,0,11.494,0,-2.3819,0,4.005e-11,0
0.55,6.4324,0,0.55,0,-0.28964,0,11.494,0,-2.3819,0,3.9869e-11,0
0.56,6.5493,0,0.56,0,-0.28964,0,11.494,0,-2.3819,0,3.9684e-11,0
0.57,6.6663,0,0.57,0,-0.28964,0,11.494,0,-2.3819,0,3.9497e-11,0
0.58,6.7832,0,0.58,0,-0.28964,0,11.494,0,-2.3819,0,3.9307e-11,0
0.59,6.9002,0,0.59,0,-0.28964,0,11.494,0,-2.3819,0,3.9115e-11,0
0.6,7.0171,0,0.6,0,-0.28964,0,11.494,0,-2.3819,0,3.8922e-11,0
0.61,7.1341,0,0.61,0,-0.28964,0,11.494,0,-2.3819,0,3.8726e-11,0
0.62,7.251,0,0.62,0,-0.28964,0,11.494,0,-2.3819,0,3.8529e-11,0
0.63,7.368,0,0.63,0,-0.28964,0,11.494,0,-2.3819,0,3.8331e-11,0
0.64,7.4849,0,0.64,0,-0.28964,0,11.494,0,-2.3819,0,3.8132e-11,0
0.65,7.6019,0,0.65,0,-0.28964,0,11.494,0,-2.3819,0,3.7931e-11,0
0.66,7.7188,0,0.66,0,-0.28964,0,11.494,0,-2.3819,0,3.773e-11,0
0.67,7.8358,0,0.67,0,-0.28964,0,11.494,0,-2.3819,0,3.7527e-11,0
0.68,7.9528,0,0.68,0,-0.28964,0,11.494,0,-2.3819,0,3.7324e-11,0
0.69,8.0697,0,0.69,0,-0.28964,0,11.494,0,-2.3819,0,3.712e-11,0
0.7,8.1867,0,0.7,0,-0.28964,0,11.494,0,-2.3819,0,3.6915e-11,0
0.71,8.3036,0,0.71,0,-0.28964,0,11.494,0,-2.3819,0,3.6709e-11,0
0.72,8.4206,0,0.72,0,-0.28964,0,11.494,0,-2.3819,0,3.6503e-11,0
0.73,8.5375,0,0.73,0,-0.28964,0,11.494,0,-2.3819,0,3.6296e-11,0
0.74,8.6545,0,0.74,0,-0.28964,0,11.494,0,-2.3819,0,3.6088e-11,0
0.75,8.7714,0,0.75,0,-0.28964,0,11.494,0,-2.3819,0,3.588e-11,0
0.76,8.8884,0,0.76,0,-0.28964,0,11.494,0,-2.3819,0,3.5671e-11,0
0.77,9.0053,0,0.77,0,-0.28964,0,11.494,0,-2.3819,0,3.5463e-11,0
0.78,9.1223,0,0.78,0,-0.28964,0,11.494,0,-2.3819,0,3.5253e-11,0
0.79,9.2392,0,0.79,0,-0.28964,0,11.494,0,-2.3819,0,3.5044e-11,0
0.8,9.3562,0,0.8,0,-0.28964,0,11.494,0,-2.3819,0,3.4834e-11,0
0.81,9.4731,0,0.81,0,-0.28964,0,11.494,0,-2.3819,0,3.4623e-11,0
0.82,9.5901,0,0.82,0,-0.28964,0,11.494,0,-2.3819,0,3.4413e-11,0
0.83,9.707,0,0.83,0,-0.28964,0,11.494,0,-2.3819,0,3.4202e-11,0
0.84,9.824,0,0.84,0,-0.28964,0,11.494,0,-2.3819,0,3.3991e-11,0
0.85,9.9409,0,0.85,0,-0.28964,0,11.494,0,-2.3819,0,3.3779e-11,0
0.86,10.058,0,0.86,0,-0.28964,0,11.494,0,-2.3819,0,3.3568e-11,0
0.87,10.175,0,0.87,0,-0.28964,0,11.494,0,-2.3819,0,3.3356e-11,0
0.88,10.292,0,0.88,0,-0.28964,0,11.494,0,-2.3819,0,3.3145e-11,0
0.89,10.409,0,0.89,0,-0.28964,0,11.494,0,-2.3819,0,3.2933e-11,0
0.9,10.526,0,0.9,0,-0.28964,0,11.494,0,-2.3819,0,3.2721e-11,0
0.91,10.643,0,0.91,0,-0.28964,0,11.494,0,-2.3819,0,3.2509e-11,0
0.92,10.76,0,0.92,0,-0.28964,0,11.494,0,-2.3819,0,3.2297e-11,0
0.93,10.877,0,0.93,0,-0.28964,0,11.494,0,-2.3819,0,3.2085e-11,0
0.94,10.994,0,0.94,0,-0.28964,0,11.494,0,-2.3819,0,3.1873e-11,0
0.95,11.11,0,0.95,0,-0.28964,0,11.494,0,-2.3819,0,3.1662e-11,0
0.96,11.227,0,0.96,0,-0.28964,0,11.494,0,-2.3819,0,3.145e-11,0
0.97,11.344,0,0.97,0,-0.28964,0,11.494,0,-2.3819,0,3.1238e-11,0
0.98,11.461,0,0.98,0,-0.28964,0,11.494,0,-2.3819,0,3.1027e-11,0
0.99,11.578,0,0.99,0,-0.28964,0,11.494,0,-2.3819,0,3.0815e-11,0
1,11.695,0,1,0,-0.28964,0,11.494,0,-2.3819,0,3.0604e-11,0
1.01,11.812,0,1.01,0,-0.28964,0,11.494,0,-2.3819,0,3.0393e-11,0
1.02,11.929,0,1.02,0,-0.28964,0,11.494,0,-2.3819,0,3.0182e-11,0
1.03,12.046,0,1.03,0,-0.28964,0,11.494,0,-2.3819,0,2.9971e-11,0
1.04,12.163,0,1.04,0,-0.28964,0,11.494,0,-2.3819,0,2.9761e-11,0
1.05,12.28,0,1.05,0,-0.28964,0,11.494,0,-2.3819,0,2.955e-11,0
1.06,12.397,0,1.06,0,-0.28964,0,11.494,0,-2.3819,0,2.934e-11,0
1.07,12.514,0,1.07,0,-0.28964,0,11.494,0,-2.3819,0,2.9131e-11,0
1.08,12.631,0,1.08,0,-0.28964,0,11.494,0,-2.3819,0,2.8921e-11,0
1.09,12.748,0,1.09,0,-0.28964,0,11.494,0,-2.3819,0,2.8712e-11,0
1.1,12.865,0,1.1,0,-0.28964,0,11.494,0,-2.3819,0,2.8504e-11,0
1.11,12.982,0,1.11,0,-0.28964,0,11.494,0,-2.3819,0,2.8295e-11,0
1.12,13.099,0,1.12,0,-0.28964,0,11.494,0,-2.3819,0,2.8087e-11,0
1.13,13.216,0,1.13,0,-0.28964,0,11.494,0,-2.3819,0,2.788e-11,0
1.14,13.333,0,1.14,0,-0.28964,0,11.494,0,-2.3819,0,2.7673e-11,0
1.15,13.45,0,1.15,0,-0.28964,0,11.494,0,-2.3819,0,2.7466e-11,0
1.16,13.566,0,1.16,0,-0.28964,0,11.494,0,-2.3819,0,2.726e-11,0
1.17,13.683,0,1.17,0,-0.28964,0,11.494,0,-2.3819,0,2.7054e-11,0
1.18,13.8,0,1.18,0,-0.28964,0,11.494,0,-2.3819,0,2.6849e-11,0
1.19,13.917,0,1.19,0,-0.28964,0,11.494,0,-2.3819,0,2.6644e-11,0
1.2,14.034,0,1.2,0,-0.28964,0,11.494,0,-2.3819,0,2.644e-11,0
1.21,14.151,0,1.21,0,-0.28964,0,11.494,0,-2.3819,0,2.6236e-11,0
1.22,14.268,0,1.22,0,-0.28964,0,11.494,0,-2.3819,0,2.6033e-11,0
1.23,14.385,0,1.23,0,-0.28964,0,11.494,0,-2.3819,0,2.583e-11,0
1.24,14.502,0,1.24,0,-0.28964,0,11.494,0,-2.3819,0,2.5628e-11,0
1.25,14.619,0,1.25,0,-0.28964,0,11.494,0,-2.3819,0,2.5427e-11,0
1.26,14.736,0,1.26,0,-0.28964,0,11.494,0,-2.3819,0,2.5226e-11,0
1.27,14.853,0,1.27,0,-0.28964,0,11.494,0,-2.3819,0,2.5025e-11,0
1.28,14.97,0,1.28,0,-0.28964,0,11.494,0,-2.3819,0,2.4825e-11,0
1.29,15.087,0,1.29,0,-0.28964,0,11.494,0,-2.3819,0,2.4626e-11,0
1.3,15.204,0,1.3,0,-0.28964,0,11.494,0,-2.3819,0,2.4428e-11,0
1.31,15.321,0,1.31,0,-0.28964,0,11.494,0,-2.3819,0,2.423e-11,0
1.32,15.438,0,1.32,0,-0.28964,0,11.494,0,-2.3819,0,2.4032e-11,0
1.33,15.555,0,1.33,0,-0.28964,0,11.494,0,-2.3819,0,2.3836e-11,0
1.34,15.672,0,1.34,0,-0.28964,0,11.494,0,-2.3819,0,2.364e-11,0
1.35,15.789,0,1.35,0,-0.28964,0,11.494,0,-2.3819,0,2.3445e-11,0
1.36,15.906,0,1.36,0,-0.28964,0,11.494,0,-2.3819,0,2.325e-11,0
1.37,16.022,0,1.37,0,-0.28964,0,11.494,0,-2.3819,0,2.3056e-11,0
1.38,16.139,0,1.38,0,-0.28964,0,11.494,0,-2.3819,0,2.2863e-11,0
1.39,16.256,0,1.39,0,-0.28964,0,11.494,0,-2.3819,0,2.2671e-11,0
1.4,16.373,0,1.4,0,-0.28964,0,11.494,0,-2.3819,0,2.2479e-11,0
1.41,16.49,0,1.41,0,-0.28964,0,11.494,0,-2.3819,0,2.2288e-11,0
1.42,16.607,0,1.42,0,-0.28964,0,11.494,0,-2.3819,0,2.2098e-11,0
1.43,16.724,0,1.43,0,-0.28964,0,11.494,0,-2.3819,0,2.1909e-11,0
1.44,16.841,0,1.44,0,-0.28964,0,11.494,0,-2.3819,0,2.172e-11,0
1.45,16.958,0,1.45,0,-0.28964,0,11.494,0,-2.3819,0,2.1533e-11,0
1.46,17.075,0,1.46,0,-0.28964,0,11.494,0,-2.3819,0,2.1345e-11,0
1.47,17.192,0,1.47,0,-0.28964,0,11.494,0,-2.3819,0,2.1159e-11,0
1.48,17.309,0,1.48,0,-0.28964,0,11.494,0,-2.3819,0,2.0974e-11,0
1.49,17.426,0,1.49,0,-0.28964,0,11.494,0,-2.3819,0,2.0789e-11,0
1.5,17.543,0,1.5,0,-0.28964,0,11.494,0,-2.3819,0,2.0605e-11,0
1.51,17.66,0,1.51,0,-0.28964,0,11.494,0,-2.3819,0,2.0422e-11,0
1.52,17.777,0,1.52,0,-0.28964,0,11.494,0,-2.3819,0,2.024e-11,0
1.53,17.894,0,1.53,0,-0.28964,0,11.494,0,-2.3819,0,2.0059e-11,0
1.54,18.011,0,1.54,0,-0.28964,0,11.494,0,-2.3819,0,1.9878e-11,0
1.55,18.128,0,1.55,0,-0.28964,0,11.494,0,-2.3819,0,1.9699e-11,0
1.56,18.245,0,1.56,0,-0.28964,0,11.494,0,-2.3819,0,1.952e-11,0
1.57,18.361,0,1.57,0,-0.28964,0,11.494,0,-2.3819,0,1.9342e-11,0
1.58,18.478,0,1.58,0,-0.28964,0,11.494,0,-2.3819,0,1.9165e-11,0
1.59,18.595,0,1.59,0,-0.28964,0,11.494,0,-2.3819,0,1.8989e-11,0
1.6,18.712,0,1.6,0,-0.28964,0,11.494,0,-2.3819,0,1.8813e-11,0
1.61,18.829,0,1.61,0,-0.28964,0,11.494,0,-2.3819,0,1.8639e-11,0
1.62,18.946,0,1.62,0,-0.28964,0,11.494,0,-2.3819,0,1.8465e-11,0
1.63,19.063,0,1.63,0,-0.28964,0,11.494,0,-2.3819,0,1.8293e-11,0
1.64,19.18,0,1.64,0,-0.28964,0,11.494,0,-2.3819,0,1.8121e-11,0
1.65,19.297,0,1.65,0,-0.28964,0,11.494,0,-2.3819,0,1.795e-11,0
1.66,19.414,0,1.66,0,-0.28964,0,11.494,0,-2.3819,0,1.778e-11,0
1.67,19.531,0,1.67,0,-0.28964,0,11.494,0,-2.3819,0,1.7611e-11,0
1.68,19.648,0,1.68,0,-0.28964,0,11.494,0,-2.3819,0,1.7442e-11,0
1.69,19.765,0,1.69,0,-0.28964,0,11.494,0,-2.3819,0,1.7275e-11,0
1.7,19.882,0,1.7,0,-0.28964,0,11.494,0,-2.3819,0,1.7109e-11,0
1.71,19.999,0,1.71,0,-0.28964,0,11.494,0,-2.3819,0,1.6943e-11,0
1.72,20.116,0,1.72,0,-0.28964,0,11.494,0,-2.3819,0,1.6779e-11,0
1.73,20.233,0,1.73,0,-0.28964,0,11.494,0,-2.3819,0,1.6615e-11,0
1.74,20.35,0,1.74,0,-0.28964,0,11.494,0,-2.3819,0,1.6453e-11,0
1.75,20.467,0,1.75,0,-0.28964,0,11.494,0,-2.3819,0,1.6291e-11,0
1.76,20.584,0,1.76,0,-0.28964,0,11.494,0,-2.3819,0,1.613e-11,0
1.77,20.701,0,1.77,0,-0.28964,0,11.494,0,-2.3819,0,1.597e-11,0
1.78,20.817,0,1.78,0,-0.28964,0,11.494,0,-2.3819,0,1.5811e-11,0
1.79,20.934,0,1.79,0,-0.28964,0,11.494,0,-2.3819,0,1.5653e-11,0
1.8,21.051,0,1.8,0,-0.28964,0,11.494,0,-2.3819,0,1.5496e-11,0
1.81,21.168,0,1.81,0,-0.28964,0,11.494,0,-2.3819,0,1.534e-11,0
1.82,21.285,0,1.82,0,-0.28964,0,11.494,0,-2.3819,0,1.5184e-11,0
1.83,21.402,0,1.83,0,-0.28964,0,11.494,0,-2.3819,0,1.503e-11,0
1.84,21.519,0,1.84,0,-0.28964,0,11.494,0,-2.3819,0,1.4877e-11,0
1.85,21.636,0,1.85,0,-0.28964,0,11.494,0,-2.3819,0,1.4724e-11,0
1.86,21.753,0,1.86,0,-0.28964,0,11.494,0,-2.3819,0,1.4573e-11,0
1.87,21.87,0,1.87,0,-0.28964,0,11.494,0,-2.3819,0,1.4422e-11,0
1.88,21.987,0,1.88,0,-0.28964,0,11.494,0,-2.3819,0,1.4273e-11,0
1.89,22.104,0,1.89,0,-0.28964,0,11.494,0,-2.3819,0,1.4124e-11,0
1.9,22.221,0,1.9,0,-0.28964,0,11.494,0,-2.3819,0,1.3976e-11,0
1.91,22.338,0,1.91,0,-0.28964,0,11.494,0,-2.3819,0,1.3829e-11,0
1.92,22.455,0,1.92,0,-0.28964,0,11.494,0,-2.3819,0,1.3683e-11,0
1.93,22.572,0,1.93,0,-0.28964,0,11.494,0,-2.3819,0,1.3539e-11,0
1.94,22.689,0,1.94,0,-0.28964,0,11.494,0,-2.3819,0,1.3395e-11,0
1.95,22.806,0,1.95,0,-0.28964,0,11.494,0,-2.3819,0,1.3252e-11,0
1.96,22.923,0,1.96,0,-0.28964,0,11.494,0,-2.3819,0,1.311e-11,0
1.97,23.04,0,1.97,0,-0.28964,0,11.494,0,-2.3819,0,1.2969e-11,0
1.98,23.157,0,1.98,0,-0.28964,0,11.494,0,-2.3819,0,1.2829e-11,0
1.99,23.273,0,1.99,0,-0.28964,0,11.494,0,-2.3819,0,1.269e-11,0
2,23.39,0,2,0,-0.28964,0,11.494,0,-2.3819,0,1.2551e-11,0
2.01,23.507,0,2.01,0,-0.28964,0,11.494,0,-2.3819,0,1.2414e-11,0
2.02,23.624,0,2.02,0,-0.28964,0,11.494,0,-2.3819,0,1.2278e-11,0
2.03,23.741,0,2.03,0,-0.28964,0,11.494,0,-2.3819,0,1.2142e-11,0
2.04,23.858,0,2.04,0,-0.28964,0,11.494,0,-2.3819,0,1.2008e-11,0
2.05,23.975,0,2.05,0,-0.28964,0,11.494,0,-2.3819,0,1.1874e-11,0
2.06,24.092,0,2.06,0,-0.28964,0,11.494,0,-2.3819,0,1.1742e-11,0
2.07,24.209,0,2.07,0,-0.28964,0,11.494,0,-2.3819,0,1.161e-11,0
2.08,24.326,0,2.08,0,-0.28964,0,11.494,0,-2.3819,0,1.1479e-11,0
2.09,24.443,0,2.09,0,-0.28964,0,11.494,0,-2.3819,0,1.135e-11,0
2.1,24.56,0,2.1,0,-0.28964,0,11.494,0,-2.3819,0,1.1221e-11,0
2.11,24.677,0,2.11,0,-0.28964,0,11.494,0,-2.3819,0,1.1093e-11,0
2.12,24.794,0,2.12,0,-0.28964,0,11.494,0,-2.3819,0,1.0966e-11,0
2.13,24.911,0,2.13,0,-0.28964,0,11.494,0,-2.3819,0,1.084e-11,0
2.14,25.028,0,2.14,0,-0.28964,0,11.494,0,-2.3819,0,1.0715e-11,0
2.15,25.145,0,2.15,0,-0.28964,0,11.494,0,-2.3819,0,1.0591e-11,0
2.16,25.262,0,2.16,0,-0.28964,0,11.494,0,-2.3819,0,1.0467e-11,0
2.17,25.379,0,2.17,0,-0.28964,0,11.494,0,-2.3819,0,1.0345e-11,0
2.18,25.496,0,2.18,0,-0.28964,0,11.494,0,-2.3819,0,1.0224e-11,0
2.19,25.613,0,2.19,0,-0.28964,0,11.494,0,-2.3819,0,1.0103e-11,0
2.2,25.729,0,2.2,0,-0.28964,0,11.494,0,-2.3819,0,9.9838e-12,0
2.21,25.846,0,2.21,0,-0.28964,0,11.494,0,-2.3819,0,9.8652e-12,0
2.22,25.963,0,2.22,0,-0.28964,0,11.494,0,-2.3819,0,9.7476e-12,0
2.23,26.08,0,2.23,0,-0.28964,0,11.494,0,-2.3819,0,9.6307e-12,0
2.24,26.197,0,2.24,0,-0.28964,0,11.494,0,-2.3819,0,9.5147e-12,0
2.25,26.314,0,2.25,0,-0.28964,0,11.494,0,-2.3819,0,9.3996e-12,0
2.26,26.431,0,2.26,0,-0.28964,0,11.494,0,-2.3819,0,9.2855e-12,0
2.27,26.548,0,2.27,0,-0.28964,0,11.494,0,-2.3819,0,9.1724e-12,0
2.28,26.665,0,2.28,0,-0.28964,0,11.494,0,-2.3819,0,9.0602e-12,0
2.29,26.782,0,2.29,0,-0.28964,0,11.494,0,-2.3819,0,8.9488e-12,0
2.3,26.899,0,2.3,0,-0.28964,0,11.494,0,-2.3819,0,8.8382e-12,0
2.31,27.016,0,2.31,0,-0.28964,0,11.494,0,-2.3819,0,8.7284e-12,0
2.32,27.133,0,2.32,0,-0.28964,0,11.494,0,-2.3819,0,8.6197e-12,0
2.33,27.25,0,2.33,0,-0.28964,0,11.494,0,-2.3819,0,8.5119e-12,0
2.34,27.367,0,2.34,0,-0.28964,0,11.494,0,-2.3819,0,8.405e-12,0
2.35,27.484,0,2.35,0,-0.28964,0,11.494,0,-2.3819,0,8.2989e-12,0
2.36,27.601,0,2.36,0,-0.28964,0,11.494,0,-2.3819,0,8.1937e-12,0
2.37,27.718,0,2.37,0,-0.28964,0,11.494,0,-2.3819,0,8.0894e-12,0
2.38,27.835,0,2.38,0,-0.28964,0,11.494,0,-2.3819,0,7.9858e-12,0
2.39,27.952,0,2.39,0,-0.28964,0,11.494,0,-2.3819,0,7.8831e-12,0
2.4,28.069,0,2.4,0,-0.28964,0,11.494,0,-2.3819,0,7.7813e-12,0
2.41,28.185,0,2.41,0,-0.28964,0,11.494,0,-2.3819,0,7.6804e-12,0
2.42,28.302,0,2.42,0,-0.28964,0,11.494,0,-2.3819,0,7.5805e-12,0
2.43,28.419,0,2.43,0,-0.28964,0,11.494,0,-2.3819,0,7.4813e-12,0
2.44,28.536,0,2.44,0,-0.28964,0,11.494,0,-2.3819,0,7.383e-12,0
2.45,28.653,0,2.45,0,-0.28964,0,11.494,0,-2.3819,0,7.2855e-12,0
2.46,28.77,0,2.46,0,-0.28964,0,11.494,0,-2.3819,0,7.1888e-12,0
2.47,28.887,0,2.47,0,-0.28964,0,11.494,0,-2.3819,0,7.093e-12,0
2.48,29.004,0,2.48,0,-0.28964,0,11.494,0,-2.3819,0,6.998e-12,0
2.49,29.121,0,2.49,0,-0.28964,0,11.494,0,-2.3819,0,6.9038e-12,0
2.5,29.238,0,2.5,0,-0.28964,0,11.494,0,-2.3819,0,6.8105e-12,0
2.51,29.355,0,2.51,0,-0.28964,0,11.494,0,-2.3819,0,6.718e-12,0
2.52,29.472,0,2.52,0,-0.28964,0,11.494,0,-2.3819,0,6.6263e-12,0
2.53,29.589,0,2.53,0,-0.28964,0,11.494,0,-2.3819,0,6.5354e-12,0
2.54,29.706,0,2.54,0,-0.28964,0,11.494,0,-2.3819,0,6.4453e-12,0
2.55,29.823,0,2.55,0,-0.28964,0,11.494,0,-2.3819,0,6.356e-12,0
2.56,29.94,0,2.56,0,-0.28964,0,11.494,0,-2.3819,0,6.2676e-12,0
2.57,30.057,0,2.57,0,-0.28964,0,11.494,0,-2.3819,0,6.18e-12,0
2.58,30.174,0,2.58,0,-0.28964,0,11.494,0,-2.3819,0,6.0932e-12,0
2.59,30.291,0,2.59,0,-0.28964,0,11.494,0,-2.3819,0,6.0072e-12,0
2.6,30.408,0,2.6,0,-0.28964,0,11.494,0,-2.3819,0,5.9219e-12,0
2.61,30.525,0,2.61,0,-0.28964,0,11.494,0,-2.3819,0,5.8374e-12,0
2.62,30.641,0,2.62,0,-0.28964,0,11.494,0,-2.3819,0,5.7537e-12,0
2.63,30.758,0,2.63,0,-0.28964,0,11.494,0,-2.3819,0,5.6708e-12,0
2.64,30.875,0,2.64,0,-0.28964,0,11.494,0,-2.3819,0,5.5886e-12,0
2.65,30.992,0,2.65,0,-0.28964,0,11.494,0,-2.3819,0,5.5072e-12,0
2.66,31.109,0,2.66,0,-0.28964,0,11.494,0,-2.3819,0,5.4265e-12,0
2.67,31.226,0,2.67,0,-0.28964,0,11.494,0,-2.3819,0,5.3466e-12,0
2.68,31.343,0,2.68,0,-0.28964,0,11.494,0,-2.3819,0,5.2676e-12,0
2.69,31.46,0,2.69,0,-0.28964,0,11.494,0,-2.3819,0,5.1893e-12,0
2.7,31.577,0,2.7,0,-0.28964,0,11.494,0,-2.3819,0,5.1118e-12,0
2.71,31.694,0,2.71,0,-0.28964,0,11.494,0,-2.3819,0,5.0351e-12,0
2.72,31.811,0,2.72,0,-0.28964,0,11.494,0,-2.3819,0,4.959e-12,0
2.73,31.928,0,2.73,0,-0.28964,0,11.494,0,-2.3819,0,4.8836e-12,0
2.74,32.045,0,2.74,0,-0.28964,0,11.494,0,-2.3819,0,4.809e-12,0
2.75,32.162,0,2.75,0,-0.28964,0,11.494,0,-2.3819,0,4.7351e-12,0
2.76,32.279,0,2.76,0,-0.28964,0,11.494,0,-2.3819,0,4.6618e-12,0
2.77,32.396,0,2.77,0,-0.28964,0,11.494,0,-2.3819,0,4.5894e-12,0
2.78,32.513,0,2.78,0,-0.28964,0,11.494,0,-2.3819,0,4.5177e-12,0
2.79,32.63,0,2.79,0,-0.28964,0,11.494,0,-2.3819,0,4.4467e-12,0
2.8,32.747,0,2.8,0,-0.28964,0,11.494,0,-2.3819,0,4.3763e-12,0
2.81,32.864,0,2.81,0,-0.28964,0,11.494,0,-2.3819,0,4.3067e-12,0
2.82,32.981,0,2.82,0,-0.28964,0,11.494,0,-2.3819,0,4.2378e-12,0
2.83,33.097,0,2.83,0,-0.28964,0,11.494,0,-2.3819,0,4.1695e-12,0
2.84,33.214,0,2.84,0,-0.28964,0,11.494,0,-2.3819,0,4.102e-12,0
2.85,33.331,0,2.85,0,-0.28964,0,11.494,0,-2.3819,0,4.0352e-12,0
2.86,33.448,0,2.86,0,-0.28964,0,11.494,0,-2.3819,0,3.9691e-12,0
2.87,33.565,0,2.87,0,-0.28964,0,11.494,0,-2.3819,0,3.9038e-12,0
2.88,33.682,0,2.88,0,-0.28964,0,11.494,0,-2.3819,0,3.8391e-12,0
2.89,33.799,0,2.89,0,-0.28964,0,11.494,0,-2.3819,0,3.7751e-12,0
2.9,33.916,0,2.9,0,-0.28964,0,11.494,0,-2.3819,0,3.7116e-12,0
2.91,34.033,0,2.91,0,-0.28964,0,11.494,0,-2.3819,0,3.6488e-12,0
2.92,34.15,0,2.92,0,-0.28964,0,11.494,0,-2.3819,0,3.5866e-12,0
2.93,34.267,0,2.93,0,-0.28964,0,11.494,0,-2.3819,0,3.5251e-12,0
2.94,34.384,0,2.94,0,-0.28964,0,11.494,0,-2.3819,0,3.4642e-12,0
2.95,34.501,0,2.95,0,-0.28964,0,11.494,0,-2.3819,0,3.404e-12,0
2.96,34.618,0,2.96,0,-0.28964,0,11.494,0,-2.3819,0,3.3444e-12,0
2.97,34.735,0,2.97,0,-0.28964,0,11.494,0,-2.3819,0,3.2855e-12,0
2.98,34.852,0,2.98,0,-0.28964,0,11.494,0,-2.3819,0,3.2272e-12,0
2.99,34.969,0,2.99,0,-0.28964,0,11.494,0,-2.3819,0,3.1696e-12,0
3,35.086,0,3,0,-0.28964,0,11.494,0,-2.3819,0,3.1126e-12,0
