t, elevL, elevR, throttle
0,0.20047,0.1677,5.3398
0.01,0.27592,0.10733,5.3398
0.02,0.27018,0.111,5.3398
0.03,0.34305,0.069467,5.3398
0.04,0.32959,0.072825,5.3398
0.05,0.37589,0.063276,5.3398
0.06,0.37527,0.018762,5.3398
0.07,0.37678,0.021097,5.3398
0.08,0.42968,-0.025323,5.3398
0.09,0.42727,-0.023305,5.3398
0.1,0.46987,-0.057617,5.3398
0.11,0.4761,-0.062585,5.3398
0.12,0.47678,-0.062238,5.3398
0.13,0.47457,-0.062833,5.3398
0.14,0.50318,-0.065921,5.3398
0.15,0.50259,-0.079146,5.3398
0.16,0.51645,-0.084474,5.3398
0.17,0.52683,-0.088645,5.3398
0.18,0.5389,-0.096124,5.3398
0.19,0.55241,-0.10374,5.3398
0.2,0.54846,-0.10678,5.3398
0.21,0.55531,-0.091168,5.3398
0.22,0.55567,-0.091503,5.3398
0.23,0.54348,-0.089306,5.3398
0.24,0.54314,-0.064281,5.3398
0.25,0.54043,-0.06273,5.3398
0.26,0.50115,-0.027556,5.3398
0.27,0.5055,-0.03118,5.3398
0.28,0.44636,-0.035335,5.3398
0.29,0.44332,-0.035017,5.3398
0.3,0.53288,-0.02855,5.3398
0.31,0.50795,-0.031511,5.3398
0.32,0.52941,-0.017066,5.3398
0.33,0.52842,0.012877,5.3398
0.34,0.52278,0.044466,5.3398
0.35,0.52131,0.064763,5.3398
0.36,0.48797,0.10429,5.3398
0.37,0.44808,0.14247,5.3398
0.38,0.41763,0.12391,5.3398
0.39,0.36751,0.25066,5.3398
0.4,0.34006,0.23454,5.3398
0.41,0.22907,0.28925,5.3398
0.42,0.23464,0.28682,5.3398
0.43,0.22219,0.28917,5.3398
0.44,0.22327,0.31173,5.3398
0.45,0.22281,0.30853,5.3398
0.46,0.24602,0.337,5.3398
0.47,0.24296,0.334,5.3398
0.48,0.27436,0.36212,5.3398
0.49,0.26741,0.35513,5.3398
0.5,0.29134,0.38928,5.3398
0.51,0.29569,0.37865,5.3398
0.52,0.27355,0.41366,5.3398
0.53,0.2555,0.44058,5.3398
0.54,0.25708,0.43812,5.3398
0.55,0.23515,0.48068,5.3398
0.56,0.22821,0.48473,5.3398
0.57,0.21743,0.49405,5.3398
0.58,0.20332,0.50524,5.3398
0.59,0.17678,0.52452,5.3398
0.6,0.16829,0.52127,5.3398
0.61,0.1248,0.53705,5.3398
0.62,0.13626,0.5591,5.3398
0.63,0.10758,0.58736,5.3398
0.64,0.1078,0.58679,5.3398
0.65,0.11875,0.58659,5.3398
0.66,0.11912,0.5954,5.3398
0.67,0.12388,0.58846,5.3398
0.68,0.1363,0.57367,5.3398
0.69,0.13265,0.57537,5.3398
0.7,0.14745,0.57524,5.3398
0.71,0.14565,0.57483,5.3398
0.72,0.14555,0.5707,5.3398
0.73,0.14539,0.56895,5.3398
0.74,0.14551,0.56599,5.3398
0.75,0.1462,0.56105,5.3398
0.76,0.13737,0.54799,5.3398
0.77,0.11762,0.51915,5.3398
0.78,0.10292,0.49469,5.3398
0.79,0.066955,0.43331,5.3398
0.8,0.11489,0.43865,5.3398
0.81,0.16031,0.23049,5.3398
0.82,0.15979,0.21103,5.3398
0.83,0.12597,0.23213,5.3398
0.84,0.12608,0.23216,5.3398
0.85,0.12558,0.23215,5.3398
0.86,0.12582,0.23158,5.3398
0.87,0.1279,0.22785,5.3398
0.88,0.13552,0.21495,5.3398
0.89,0.13637,0.2163,5.3398
0.9,0.14319,0.21647,5.3398
0.91,0.14085,0.2186,5.3398
0.92,0.12445,0.23259,5.3398
0.93,0.1282,0.23043,5.3398
0.94,0.12768,0.23449,5.3398
0.95,0.12762,0.23392,5.3398
0.96,0.12561,0.23394,5.3398
0.97,0.12123,0.23389,5.3398
0.98,0.12117,0.23607,5.3398
0.99,0.12108,0.23801,5.3398
1,0.11904,0.23797,5.3398
1.01,0.11231,0.2379,5.3398
1.02,0.11333,0.2379,5.3398
1.03,0.12313,0.2379,5.3398
1.04,0.12326,0.2379,5.3398
1.05,0.12337,0.2379,5.3398
1.06,0.12324,0.23801,5.3398
1.07,0.12229,0.23884,5.3398
1.08,0.11896,0.2418,5.3398
1.09,0.11976,0.24177,5.3398
1.1,0.1237,0.2423,5.3398
1.11,0.12268,0.24433,5.3398
1.12,0.12024,0.26727,5.3398
1.13,0.10305,0.25199,5.3398
1.14,0.074938,0.28837,5.3398
1.15,0.076155,0.32526,5.3398
1.16,-0.013541,0.36766,5.3398
1.17,-0.011216,0.40306,5.3398
1.18,-0.025012,0.41443,5.3398
1.19,-0.06856,0.44892,5.3398
1.2,-0.065719,0.45552,5.3398
1.21,-0.058374,0.4713,5.3398
1.22,-0.056094,0.47031,5.3398
1.23,-0.021024,0.46857,5.3398
1.24,-0.048497,0.47614,5.3398
1.25,0.05983,0.44097,5.3398
1.26,0.010543,0.4589,5.3398
1.27,0.18191,0.3912,5.3398
1.28,0.16127,0.39888,5.3398
1.29,0.17791,0.38995,5.3398
1.3,0.25467,0.34208,5.3398
1.31,0.25256,0.3417,5.3398
1.32,0.23351,0.31717,5.3398
1.33,0.23563,0.3196,5.3398
1.34,0.23566,0.31899,5.3398
1.35,0.23573,0.32033,5.3398
1.36,0.23605,0.29212,5.3398
1.37,0.23554,0.29435,5.3398
1.38,0.25875,0.28397,5.3398
1.39,0.2579,0.26644,5.3398
1.4,0.27386,0.25379,5.3398
1.41,0.28506,0.24485,5.3398
1.42,0.28529,0.24412,5.3398
1.43,0.29164,0.23454,5.3398
1.44,0.29028,0.23776,5.3398
1.45,0.29096,0.23094,5.3398
1.46,0.29267,0.23022,5.3398
1.47,0.28038,0.2301,5.3398
1.48,0.28175,0.23011,5.3398
1.49,0.29886,0.23025,5.3398
1.5,0.29741,0.234,5.3398
